{
  "products": [
    {
      "id": 163,
      "name": "fdsfsdf",
      "price": "2",
      "quantity": "5",
      "selected": true,
      "available": true
    },
    {
      "name": "dddd",
      "price": 0,
      "quantity": 0,
      "selected": false,
      "available": true,
      "id": 164
    },
    {
      "name": "ezeaeaz",
      "price": 0,
      "quantity": 0,
      "selected": false,
      "available": true,
      "id": 165
    },
    {
      "name": "effefef",
      "price": "5555",
      "quantity": "2222",
      "selected": false,
      "available": false,
      "id": 166
    }
  ]
}